S1-2,S1-3,S1-4,S1-5,S2-3,S2-4,S2-5,S3-4,S3-5,S4-5,time
"{'type': 'note_on', 'note': 48, 'channel': 0}","{'type': 'note_on', 'note': 47, 'channel': 1}","{'type': 'note_on', 'note': 57, 'channel': 2}","{'type': 'note_on', 'note': 57, 'channel': 3}","{'type': 'note_on', 'note': 52, 'channel': 4}","{'type': 'note_on', 'note': 55, 'channel': 5}","{'type': 'note_on', 'note': 74, 'channel': 6}","{'type': 'note_on', 'note': 74, 'channel': 7}","{'type': 'note_on', 'note': 62, 'channel': 8}","{'type': 'note_on', 'note': 60, 'channel': 9}",22:26:45.296
"{'type': 'note_on', 'note': 48, 'channel': 0}","{'type': 'note_on', 'note': 47, 'channel': 1}","{'type': 'note_on', 'note': 57, 'channel': 2}","{'type': 'note_on', 'note': 57, 'channel': 3}","{'type': 'note_on', 'note': 52, 'channel': 4}","{'type': 'note_on', 'note': 55, 'channel': 5}","{'type': 'note_on', 'note': 74, 'channel': 6}","{'type': 'note_on', 'note': 74, 'channel': 7}","{'type': 'note_on', 'note': 64, 'channel': 8}","{'type': 'note_on', 'note': 60, 'channel': 9}",22:26:45.676
"{'type': 'note_on', 'note': 48, 'channel': 0}","{'type': 'note_on', 'note': 47, 'channel': 1}","{'type': 'note_on', 'note': 57, 'channel': 2}","{'type': 'note_on', 'note': 59, 'channel': 3}","{'type': 'note_on', 'note': 52, 'channel': 4}","{'type': 'note_on', 'note': 55, 'channel': 5}","{'type': 'note_on', 'note': 76, 'channel': 6}","{'type': 'note_on', 'note': 76, 'channel': 7}","{'type': 'note_on', 'note': 64, 'channel': 8}","{'type': 'note_on', 'note': 60, 'channel': 9}",22:26:46.607
"{'type': 'note_on', 'note': 48, 'channel': 0}","{'type': 'note_on', 'note': 47, 'channel': 1}","{'type': 'note_on', 'note': 59, 'channel': 2}","{'type': 'note_on', 'note': 59, 'channel': 3}","{'type': 'note_on', 'note': 52, 'channel': 4}","{'type': 'note_on', 'note': 57, 'channel': 5}","{'type': 'note_on', 'note': 76, 'channel': 6}","{'type': 'note_on', 'note': 76, 'channel': 7}","{'type': 'note_on', 'note': 65, 'channel': 8}","{'type': 'note_on', 'note': 60, 'channel': 9}",22:26:47.545
"{'type': 'note_on', 'note': 48, 'channel': 0}","{'type': 'note_on', 'note': 47, 'channel': 1}","{'type': 'note_on', 'note': 59, 'channel': 2}","{'type': 'note_on', 'note': 59, 'channel': 3}","{'type': 'note_on', 'note': 53, 'channel': 4}","{'type': 'note_on', 'note': 57, 'channel': 5}","{'type': 'note_on', 'note': 77, 'channel': 6}","{'type': 'note_on', 'note': 77, 'channel': 7}","{'type': 'note_on', 'note': 65, 'channel': 8}","{'type': 'note_on', 'note': 60, 'channel': 9}",22:26:48.480
"{'type': 'note_on', 'note': 48, 'channel': 0}","{'type': 'note_on', 'note': 47, 'channel': 1}","{'type': 'note_on', 'note': 59, 'channel': 2}","{'type': 'note_on', 'note': 60, 'channel': 3}","{'type': 'note_on', 'note': 52, 'channel': 4}","{'type': 'note_on', 'note': 57, 'channel': 5}","{'type': 'note_on', 'note': 77, 'channel': 6}","{'type': 'note_on', 'note': 77, 'channel': 7}","{'type': 'note_on', 'note': 65, 'channel': 8}","{'type': 'note_on', 'note': 60, 'channel': 9}",22:26:49.416
"{'type': 'note_on', 'note': 48, 'channel': 0}","{'type': 'note_on', 'note': 47, 'channel': 1}","{'type': 'note_on', 'note': 60, 'channel': 2}","{'type': 'note_on', 'note': 60, 'channel': 3}","{'type': 'note_on', 'note': 52, 'channel': 4}","{'type': 'note_on', 'note': 57, 'channel': 5}","{'type': 'note_on', 'note': 77, 'channel': 6}","{'type': 'note_on', 'note': 77, 'channel': 7}","{'type': 'note_on', 'note': 67, 'channel': 8}","{'type': 'note_on', 'note': 60, 'channel': 9}",22:26:50.349
"{'type': 'note_on', 'note': 48, 'channel': 0}","{'type': 'note_on', 'note': 47, 'channel': 1}","{'type': 'note_on', 'note': 60, 'channel': 2}","{'type': 'note_on', 'note': 60, 'channel': 3}","{'type': 'note_on', 'note': 52, 'channel': 4}","{'type': 'note_on', 'note': 59, 'channel': 5}","{'type': 'note_on', 'note': 77, 'channel': 6}","{'type': 'note_on', 'note': 79, 'channel': 7}","{'type': 'note_on', 'note': 67, 'channel': 8}","{'type': 'note_on', 'note': 60, 'channel': 9}",22:26:51.286
"{'type': 'note_on', 'note': 48, 'channel': 0}","{'type': 'note_on', 'note': 47, 'channel': 1}","{'type': 'note_on', 'note': 60, 'channel': 2}","{'type': 'note_on', 'note': 62, 'channel': 3}","{'type': 'note_on', 'note': 53, 'channel': 4}","{'type': 'note_on', 'note': 59, 'channel': 5}","{'type': 'note_on', 'note': 79, 'channel': 6}","{'type': 'note_on', 'note': 79, 'channel': 7}","{'type': 'note_on', 'note': 67, 'channel': 8}","{'type': 'note_on', 'note': 60, 'channel': 9}",22:26:52.222
"{'type': 'note_on', 'note': 48, 'channel': 0}","{'type': 'note_on', 'note': 47, 'channel': 1}","{'type': 'note_on', 'note': 62, 'channel': 2}","{'type': 'note_on', 'note': 62, 'channel': 3}","{'type': 'note_on', 'note': 52, 'channel': 4}","{'type': 'note_on', 'note': 59, 'channel': 5}","{'type': 'note_on', 'note': 79, 'channel': 6}","{'type': 'note_on', 'note': 79, 'channel': 7}","{'type': 'note_on', 'note': 67, 'channel': 8}","{'type': 'note_on', 'note': 60, 'channel': 9}",22:26:53.158
"{'type': 'note_on', 'note': 48, 'channel': 0}","{'type': 'note_on', 'note': 47, 'channel': 1}","{'type': 'note_on', 'note': 62, 'channel': 2}","{'type': 'note_on', 'note': 62, 'channel': 3}","{'type': 'note_on', 'note': 53, 'channel': 4}","{'type': 'note_on', 'note': 60, 'channel': 5}","{'type': 'note_on', 'note': 79, 'channel': 6}","{'type': 'note_on', 'note': 79, 'channel': 7}","{'type': 'note_on', 'note': 67, 'channel': 8}","{'type': 'note_on', 'note': 60, 'channel': 9}",22:26:54.093
"{'type': 'note_on', 'note': 48, 'channel': 0}","{'type': 'note_on', 'note': 48, 'channel': 1}","{'type': 'note_on', 'note': 62, 'channel': 2}","{'type': 'note_on', 'note': 62, 'channel': 3}","{'type': 'note_on', 'note': 53, 'channel': 4}","{'type': 'note_on', 'note': 60, 'channel': 5}","{'type': 'note_on', 'note': 79, 'channel': 6}","{'type': 'note_on', 'note': 79, 'channel': 7}","{'type': 'note_on', 'note': 67, 'channel': 8}","{'type': 'note_on', 'note': 60, 'channel': 9}",22:26:55.029
"{'type': 'note_on', 'note': 47, 'channel': 0}","{'type': 'note_on', 'note': 48, 'channel': 1}","{'type': 'note_on', 'note': 62, 'channel': 2}","{'type': 'note_on', 'note': 62, 'channel': 3}","{'type': 'note_on', 'note': 53, 'channel': 4}","{'type': 'note_on', 'note': 60, 'channel': 5}","{'type': 'note_on', 'note': 81, 'channel': 6}","{'type': 'note_on', 'note': 79, 'channel': 7}","{'type': 'note_on', 'note': 69, 'channel': 8}","{'type': 'note_on', 'note': 60, 'channel': 9}",22:26:55.964
"{'type': 'note_on', 'note': 48, 'channel': 0}","{'type': 'note_on', 'note': 48, 'channel': 1}","{'type': 'note_on', 'note': 62, 'channel': 2}","{'type': 'note_on', 'note': 64, 'channel': 3}","{'type': 'note_on', 'note': 53, 'channel': 4}","{'type': 'note_on', 'note': 62, 'channel': 5}","{'type': 'note_on', 'note': 81, 'channel': 6}","{'type': 'note_on', 'note': 79, 'channel': 7}","{'type': 'note_on', 'note': 69, 'channel': 8}","{'type': 'note_on', 'note': 60, 'channel': 9}",22:26:56.901
"{'type': 'note_on', 'note': 48, 'channel': 0}","{'type': 'note_on', 'note': 48, 'channel': 1}","{'type': 'note_on', 'note': 64, 'channel': 2}","{'type': 'note_on', 'note': 64, 'channel': 3}","{'type': 'note_on', 'note': 53, 'channel': 4}","{'type': 'note_on', 'note': 62, 'channel': 5}","{'type': 'note_on', 'note': 81, 'channel': 6}","{'type': 'note_on', 'note': 79, 'channel': 7}","{'type': 'note_on', 'note': 69, 'channel': 8}","{'type': 'note_on', 'note': 60, 'channel': 9}",22:26:57.836
"{'type': 'note_on', 'note': 48, 'channel': 0}","{'type': 'note_on', 'note': 48, 'channel': 1}","{'type': 'note_on', 'note': 64, 'channel': 2}","{'type': 'note_on', 'note': 64, 'channel': 3}","{'type': 'note_on', 'note': 53, 'channel': 4}","{'type': 'note_on', 'note': 62, 'channel': 5}","{'type': 'note_on', 'note': 81, 'channel': 6}","{'type': 'note_on', 'note': 81, 'channel': 7}","{'type': 'note_on', 'note': 69, 'channel': 8}","{'type': 'note_on', 'note': 60, 'channel': 9}",22:26:58.772
"{'type': 'note_on', 'note': 48, 'channel': 0}","{'type': 'note_on', 'note': 48, 'channel': 1}","{'type': 'note_on', 'note': 64, 'channel': 2}","{'type': 'note_on', 'note': 65, 'channel': 3}","{'type': 'note_on', 'note': 53, 'channel': 4}","{'type': 'note_on', 'note': 62, 'channel': 5}","{'type': 'note_on', 'note': 81, 'channel': 6}","{'type': 'note_on', 'note': 81, 'channel': 7}","{'type': 'note_on', 'note': 69, 'channel': 8}","{'type': 'note_on', 'note': 60, 'channel': 9}",22:26:59.706
"{'type': 'note_on', 'note': 48, 'channel': 0}","{'type': 'note_on', 'note': 48, 'channel': 1}","{'type': 'note_on', 'note': 64, 'channel': 2}","{'type': 'note_on', 'note': 65, 'channel': 3}","{'type': 'note_on', 'note': 53, 'channel': 4}","{'type': 'note_on', 'note': 62, 'channel': 5}","{'type': 'note_on', 'note': 81, 'channel': 6}","{'type': 'note_on', 'note': 81, 'channel': 7}","{'type': 'note_on', 'note': 69, 'channel': 8}","{'type': 'note_on', 'note': 60, 'channel': 9}",22:27:00.644
"{'type': 'note_on', 'note': 48, 'channel': 0}","{'type': 'note_on', 'note': 50, 'channel': 1}","{'type': 'note_on', 'note': 64, 'channel': 2}","{'type': 'note_on', 'note': 65, 'channel': 3}","{'type': 'note_on', 'note': 53, 'channel': 4}","{'type': 'note_on', 'note': 62, 'channel': 5}","{'type': 'note_on', 'note': 81, 'channel': 6}","{'type': 'note_on', 'note': 81, 'channel': 7}","{'type': 'note_on', 'note': 69, 'channel': 8}","{'type': 'note_on', 'note': 60, 'channel': 9}",22:27:01.580
"{'type': 'note_on', 'note': 48, 'channel': 0}","{'type': 'note_on', 'note': 50, 'channel': 1}","{'type': 'note_on', 'note': 65, 'channel': 2}","{'type': 'note_on', 'note': 65, 'channel': 3}","{'type': 'note_on', 'note': 55, 'channel': 4}","{'type': 'note_on', 'note': 62, 'channel': 5}","{'type': 'note_on', 'note': 81, 'channel': 6}","{'type': 'note_on', 'note': 81, 'channel': 7}","{'type': 'note_on', 'note': 69, 'channel': 8}","{'type': 'note_on', 'note': 60, 'channel': 9}",22:27:02.512
"{'type': 'note_on', 'note': 48, 'channel': 0}","{'type': 'note_on', 'note': 50, 'channel': 1}","{'type': 'note_on', 'note': 65, 'channel': 2}","{'type': 'note_on', 'note': 65, 'channel': 3}","{'type': 'note_on', 'note': 55, 'channel': 4}","{'type': 'note_on', 'note': 62, 'channel': 5}","{'type': 'note_on', 'note': 81, 'channel': 6}","{'type': 'note_on', 'note': 81, 'channel': 7}","{'type': 'note_on', 'note': 69, 'channel': 8}","{'type': 'note_on', 'note': 60, 'channel': 9}",22:27:03.449
"{'type': 'note_on', 'note': 48, 'channel': 0}","{'type': 'note_on', 'note': 50, 'channel': 1}","{'type': 'note_on', 'note': 65, 'channel': 2}","{'type': 'note_on', 'note': 64, 'channel': 3}","{'type': 'note_on', 'note': 55, 'channel': 4}","{'type': 'note_on', 'note': 62, 'channel': 5}","{'type': 'note_on', 'note': 81, 'channel': 6}","{'type': 'note_on', 'note': 81, 'channel': 7}","{'type': 'note_on', 'note': 67, 'channel': 8}","{'type': 'note_on', 'note': 59, 'channel': 9}",22:27:04.384
"{'type': 'note_on', 'note': 48, 'channel': 0}","{'type': 'note_on', 'note': 50, 'channel': 1}","{'type': 'note_on', 'note': 65, 'channel': 2}","{'type': 'note_on', 'note': 64, 'channel': 3}","{'type': 'note_on', 'note': 55, 'channel': 4}","{'type': 'note_on', 'note': 62, 'channel': 5}","{'type': 'note_on', 'note': 81, 'channel': 6}","{'type': 'note_on', 'note': 81, 'channel': 7}","{'type': 'note_on', 'note': 67, 'channel': 8}","{'type': 'note_on', 'note': 59, 'channel': 9}",22:27:05.322
"{'type': 'note_on', 'note': 48, 'channel': 0}","{'type': 'note_on', 'note': 50, 'channel': 1}","{'type': 'note_on', 'note': 65, 'channel': 2}","{'type': 'note_on', 'note': 62, 'channel': 3}","{'type': 'note_on', 'note': 55, 'channel': 4}","{'type': 'note_on', 'note': 62, 'channel': 5}","{'type': 'note_on', 'note': 79, 'channel': 6}","{'type': 'note_on', 'note': 81, 'channel': 7}","{'type': 'note_on', 'note': 67, 'channel': 8}","{'type': 'note_on', 'note': 57, 'channel': 9}",22:27:06.257
"{'type': 'note_on', 'note': 48, 'channel': 0}","{'type': 'note_on', 'note': 50, 'channel': 1}","{'type': 'note_on', 'note': 65, 'channel': 2}","{'type': 'note_on', 'note': 62, 'channel': 3}","{'type': 'note_on', 'note': 55, 'channel': 4}","{'type': 'note_on', 'note': 62, 'channel': 5}","{'type': 'note_on', 'note': 79, 'channel': 6}","{'type': 'note_on', 'note': 81, 'channel': 7}","{'type': 'note_on', 'note': 65, 'channel': 8}","{'type': 'note_on', 'note': 57, 'channel': 9}",22:27:07.193
"{'type': 'note_on', 'note': 48, 'channel': 0}","{'type': 'note_on', 'note': 50, 'channel': 1}","{'type': 'note_on', 'note': 65, 'channel': 2}","{'type': 'note_on', 'note': 60, 'channel': 3}","{'type': 'note_on', 'note': 55, 'channel': 4}","{'type': 'note_on', 'note': 62, 'channel': 5}","{'type': 'note_on', 'note': 77, 'channel': 6}","{'type': 'note_on', 'note': 81, 'channel': 7}","{'type': 'note_on', 'note': 64, 'channel': 8}","{'type': 'note_on', 'note': 55, 'channel': 9}",22:27:08.128
"{'type': 'note_on', 'note': 48, 'channel': 0}","{'type': 'note_on', 'note': 50, 'channel': 1}","{'type': 'note_on', 'note': 65, 'channel': 2}","{'type': 'note_on', 'note': 60, 'channel': 3}","{'type': 'note_on', 'note': 55, 'channel': 4}","{'type': 'note_on', 'note': 62, 'channel': 5}","{'type': 'note_on', 'note': 77, 'channel': 6}","{'type': 'note_on', 'note': 81, 'channel': 7}","{'type': 'note_on', 'note': 64, 'channel': 8}","{'type': 'note_on', 'note': 55, 'channel': 9}",22:27:09.064
"{'type': 'note_on', 'note': 48, 'channel': 0}","{'type': 'note_on', 'note': 50, 'channel': 1}","{'type': 'note_on', 'note': 65, 'channel': 2}","{'type': 'note_on', 'note': 59, 'channel': 3}","{'type': 'note_on', 'note': 55, 'channel': 4}","{'type': 'note_on', 'note': 62, 'channel': 5}","{'type': 'note_on', 'note': 76, 'channel': 6}","{'type': 'note_on', 'note': 81, 'channel': 7}","{'type': 'note_on', 'note': 62, 'channel': 8}","{'type': 'note_on', 'note': 53, 'channel': 9}",22:27:09.998
"{'type': 'note_on', 'note': 48, 'channel': 0}","{'type': 'note_on', 'note': 50, 'channel': 1}","{'type': 'note_on', 'note': 65, 'channel': 2}","{'type': 'note_on', 'note': 59, 'channel': 3}","{'type': 'note_on', 'note': 55, 'channel': 4}","{'type': 'note_on', 'note': 62, 'channel': 5}","{'type': 'note_on', 'note': 76, 'channel': 6}","{'type': 'note_on', 'note': 81, 'channel': 7}","{'type': 'note_on', 'note': 62, 'channel': 8}","{'type': 'note_on', 'note': 53, 'channel': 9}",22:27:10.935
"{'type': 'note_on', 'note': 48, 'channel': 0}","{'type': 'note_on', 'note': 50, 'channel': 1}","{'type': 'note_on', 'note': 65, 'channel': 2}","{'type': 'note_on', 'note': 57, 'channel': 3}","{'type': 'note_on', 'note': 55, 'channel': 4}","{'type': 'note_on', 'note': 62, 'channel': 5}","{'type': 'note_on', 'note': 74, 'channel': 6}","{'type': 'note_on', 'note': 81, 'channel': 7}","{'type': 'note_on', 'note': 60, 'channel': 8}","{'type': 'note_on', 'note': 52, 'channel': 9}",22:27:11.869
